entregafinal/peaje_electronico/simulation/qsim/peaje_electronico.msim.vcd
$comment
	File created using the following command:
		vcd file peaje_electronico.msim.vcd -direction
$end
$date
	Thu Mar 14 16:39:47 2024
$end
$version
	ModelSim Version 10.1d
$end
$timescale
	1ps
$end
$scope module peaje_electronico_vlg_vec_tst $end
$var reg 1 ! back_sensor_raw $end
$var reg 1 " clk $end
$var reg 1 # front_sensor_raw $end
$var reg 1 $ reset $end
$var reg 5 % tag_read_raw [4:0] $end
$var wire 1 & alarm_out $end
$var wire 1 ' cat_display_out [6] $end
$var wire 1 ( cat_display_out [5] $end
$var wire 1 ) cat_display_out [4] $end
$var wire 1 * cat_display_out [3] $end
$var wire 1 + cat_display_out [2] $end
$var wire 1 , cat_display_out [1] $end
$var wire 1 - cat_display_out [0] $end
$var wire 1 . entry_barrier_out $end
$var wire 1 / entry_green_out $end
$var wire 1 0 entry_red_out $end
$var wire 1 1 exit_barrier_out $end
$var wire 1 2 exit_green_out $end
$var wire 1 3 exit_red_out $end
$var wire 1 4 green_led_out $end
$var wire 1 5 red_led_out $end
$var wire 1 6 time_display_out [6] $end
$var wire 1 7 time_display_out [5] $end
$var wire 1 8 time_display_out [4] $end
$var wire 1 9 time_display_out [3] $end
$var wire 1 : time_display_out [2] $end
$var wire 1 ; time_display_out [1] $end
$var wire 1 < time_display_out [0] $end
$var wire 1 = sampler $end
$scope module i1 $end
$var wire 1 > gnd $end
$var wire 1 ? vcc $end
$var wire 1 @ unknown $end
$var tri1 1 A devclrn $end
$var tri1 1 B devpor $end
$var tri1 1 C devoe $end
$var wire 1 D entry_green_out~output_o $end
$var wire 1 E entry_red_out~output_o $end
$var wire 1 F exit_green_out~output_o $end
$var wire 1 G exit_red_out~output_o $end
$var wire 1 H entry_barrier_out~output_o $end
$var wire 1 I exit_barrier_out~output_o $end
$var wire 1 J green_led_out~output_o $end
$var wire 1 K red_led_out~output_o $end
$var wire 1 L alarm_out~output_o $end
$var wire 1 M cat_display_out[0]~output_o $end
$var wire 1 N cat_display_out[1]~output_o $end
$var wire 1 O cat_display_out[2]~output_o $end
$var wire 1 P cat_display_out[3]~output_o $end
$var wire 1 Q cat_display_out[4]~output_o $end
$var wire 1 R cat_display_out[5]~output_o $end
$var wire 1 S cat_display_out[6]~output_o $end
$var wire 1 T time_display_out[0]~output_o $end
$var wire 1 U time_display_out[1]~output_o $end
$var wire 1 V time_display_out[2]~output_o $end
$var wire 1 W time_display_out[3]~output_o $end
$var wire 1 X time_display_out[4]~output_o $end
$var wire 1 Y time_display_out[5]~output_o $end
$var wire 1 Z time_display_out[6]~output_o $end
$var wire 1 [ clk~input_o $end
$var wire 1 \ clk~inputclkctrl_outclk $end
$var wire 1 ] back_sensor_raw~input_o $end
$var wire 1 ^ input_interface_inst|back_sensor~feeder_combout $end
$var wire 1 _ reset~input_o $end
$var wire 1 ` reset~inputclkctrl_outclk $end
$var wire 1 a input_interface_inst|back_sensor~q $end
$var wire 1 b front_sensor_raw~input_o $end
$var wire 1 c input_interface_inst|front_sensor~feeder_combout $end
$var wire 1 d input_interface_inst|front_sensor~q $end
$var wire 1 e peaje_controller_inst|exit_green~combout $end
$var wire 1 f peaje_controller_inst|exit_barrier_reg~0_combout $end
$var wire 1 g peaje_controller_inst|exit_barrier_reg~q $end
$var wire 1 h timer_inst|Add1~0_combout $end
$var wire 1 i timer_inst|led_count_next~12_combout $end
$var wire 1 j timer_inst|Add1~1 $end
$var wire 1 k timer_inst|Add1~2_combout $end
$var wire 1 l timer_inst|Add1~3 $end
$var wire 1 m timer_inst|Add1~4_combout $end
$var wire 1 n timer_inst|Add1~5 $end
$var wire 1 o timer_inst|Add1~6_combout $end
$var wire 1 p timer_inst|Add1~7 $end
$var wire 1 q timer_inst|Add1~8_combout $end
$var wire 1 r timer_inst|Add1~9 $end
$var wire 1 s timer_inst|Add1~10_combout $end
$var wire 1 t timer_inst|Add1~11 $end
$var wire 1 u timer_inst|Add1~12_combout $end
$var wire 1 v timer_inst|Add1~13 $end
$var wire 1 w timer_inst|Add1~14_combout $end
$var wire 1 x timer_inst|led_count_next~11_combout $end
$var wire 1 y timer_inst|Add1~15 $end
$var wire 1 z timer_inst|Add1~16_combout $end
$var wire 1 { timer_inst|Add1~17 $end
$var wire 1 | timer_inst|Add1~18_combout $end
$var wire 1 } timer_inst|Equal1~5_combout $end
$var wire 1 ~ timer_inst|Equal1~6_combout $end
$var wire 1 !! timer_inst|Equal1~7_combout $end
$var wire 1 "! timer_inst|Add1~19 $end
$var wire 1 #! timer_inst|Add1~20_combout $end
$var wire 1 $! timer_inst|Add1~21 $end
$var wire 1 %! timer_inst|Add1~22_combout $end
$var wire 1 &! timer_inst|Add1~23 $end
$var wire 1 '! timer_inst|Add1~24_combout $end
$var wire 1 (! timer_inst|led_count_next~10_combout $end
$var wire 1 )! timer_inst|Add1~25 $end
$var wire 1 *! timer_inst|Add1~26_combout $end
$var wire 1 +! timer_inst|led_count_next~9_combout $end
$var wire 1 ,! timer_inst|Add1~27 $end
$var wire 1 -! timer_inst|Add1~28_combout $end
$var wire 1 .! timer_inst|led_count_next~8_combout $end
$var wire 1 /! timer_inst|Add1~29 $end
$var wire 1 0! timer_inst|Add1~30_combout $end
$var wire 1 1! timer_inst|led_count_next~7_combout $end
$var wire 1 2! timer_inst|Add1~31 $end
$var wire 1 3! timer_inst|Add1~32_combout $end
$var wire 1 4! timer_inst|Add1~33 $end
$var wire 1 5! timer_inst|Add1~34_combout $end
$var wire 1 6! timer_inst|led_count_next~6_combout $end
$var wire 1 7! timer_inst|Add1~35 $end
$var wire 1 8! timer_inst|Add1~36_combout $end
$var wire 1 9! timer_inst|Add1~37 $end
$var wire 1 :! timer_inst|Add1~38_combout $end
$var wire 1 ;! timer_inst|led_count_next~5_combout $end
$var wire 1 <! timer_inst|Add1~39 $end
$var wire 1 =! timer_inst|Add1~40_combout $end
$var wire 1 >! timer_inst|led_count_next~4_combout $end
$var wire 1 ?! timer_inst|Add1~41 $end
$var wire 1 @! timer_inst|Add1~42_combout $end
$var wire 1 A! timer_inst|led_count_next~3_combout $end
$var wire 1 B! timer_inst|Equal1~1_combout $end
$var wire 1 C! timer_inst|Equal1~2_combout $end
$var wire 1 D! timer_inst|Add1~43 $end
$var wire 1 E! timer_inst|Add1~44_combout $end
$var wire 1 F! timer_inst|led_count_next~2_combout $end
$var wire 1 G! timer_inst|Add1~45 $end
$var wire 1 H! timer_inst|Add1~46_combout $end
$var wire 1 I! timer_inst|led_count_next~1_combout $end
$var wire 1 J! timer_inst|Add1~47 $end
$var wire 1 K! timer_inst|Add1~48_combout $end
$var wire 1 L! timer_inst|Add1~49 $end
$var wire 1 M! timer_inst|Add1~50_combout $end
$var wire 1 N! timer_inst|led_count_next~0_combout $end
$var wire 1 O! timer_inst|Equal1~0_combout $end
$var wire 1 P! timer_inst|Equal1~3_combout $end
$var wire 1 Q! timer_inst|Equal1~4_combout $end
$var wire 1 R! timer_inst|Equal1~8_combout $end
$var wire 1 S! peaje_controller_inst|vehicle_present~0_combout $end
$var wire 1 T! timer_inst|count_reg[0]~31_combout $end
$var wire 1 U! timer_inst|count_reg[1]~32_combout $end
$var wire 1 V! timer_inst|count_reg[1]~33 $end
$var wire 1 W! timer_inst|count_reg[2]~34_combout $end
$var wire 1 X! timer_inst|count_reg[2]~35 $end
$var wire 1 Y! timer_inst|count_reg[3]~36_combout $end
$var wire 1 Z! timer_inst|count_reg[3]~37 $end
$var wire 1 [! timer_inst|count_reg[4]~38_combout $end
$var wire 1 \! timer_inst|count_reg[4]~39 $end
$var wire 1 ]! timer_inst|count_reg[5]~40_combout $end
$var wire 1 ^! timer_inst|count_reg[5]~41 $end
$var wire 1 _! timer_inst|count_reg[6]~42_combout $end
$var wire 1 `! timer_inst|count_reg[6]~43 $end
$var wire 1 a! timer_inst|count_reg[7]~44_combout $end
$var wire 1 b! timer_inst|count_reg[7]~45 $end
$var wire 1 c! timer_inst|count_reg[8]~46_combout $end
$var wire 1 d! timer_inst|count_reg[8]~47 $end
$var wire 1 e! timer_inst|count_reg[9]~48_combout $end
$var wire 1 f! timer_inst|count_reg[9]~49 $end
$var wire 1 g! timer_inst|count_reg[10]~50_combout $end
$var wire 1 h! timer_inst|count_reg[10]~51 $end
$var wire 1 i! timer_inst|count_reg[11]~52_combout $end
$var wire 1 j! timer_inst|count_reg[11]~53 $end
$var wire 1 k! timer_inst|count_reg[12]~54_combout $end
$var wire 1 l! timer_inst|count_reg[12]~55 $end
$var wire 1 m! timer_inst|count_reg[13]~56_combout $end
$var wire 1 n! timer_inst|count_reg[13]~57 $end
$var wire 1 o! timer_inst|count_reg[14]~58_combout $end
$var wire 1 p! timer_inst|count_reg[14]~59 $end
$var wire 1 q! timer_inst|count_reg[15]~60_combout $end
$var wire 1 r! timer_inst|count_reg[15]~61 $end
$var wire 1 s! timer_inst|count_reg[16]~62_combout $end
$var wire 1 t! timer_inst|count_reg[16]~63 $end
$var wire 1 u! timer_inst|count_reg[17]~64_combout $end
$var wire 1 v! timer_inst|count_reg[17]~65 $end
$var wire 1 w! timer_inst|count_reg[18]~66_combout $end
$var wire 1 x! timer_inst|count_reg[18]~67 $end
$var wire 1 y! timer_inst|count_reg[19]~68_combout $end
$var wire 1 z! timer_inst|count_reg[19]~69 $end
$var wire 1 {! timer_inst|count_reg[20]~70_combout $end
$var wire 1 |! timer_inst|count_reg[20]~71 $end
$var wire 1 }! timer_inst|count_reg[21]~72_combout $end
$var wire 1 ~! timer_inst|count_reg[21]~73 $end
$var wire 1 !" timer_inst|count_reg[22]~74_combout $end
$var wire 1 "" timer_inst|count_reg[22]~75 $end
$var wire 1 #" timer_inst|count_reg[23]~76_combout $end
$var wire 1 $" timer_inst|count_reg[23]~77 $end
$var wire 1 %" timer_inst|count_reg[24]~78_combout $end
$var wire 1 &" timer_inst|count_reg[24]~79 $end
$var wire 1 '" timer_inst|count_reg[25]~80_combout $end
$var wire 1 (" timer_inst|count_reg[25]~81 $end
$var wire 1 )" timer_inst|count_reg[26]~82_combout $end
$var wire 1 *" timer_inst|count_reg[26]~83 $end
$var wire 1 +" timer_inst|count_reg[27]~84_combout $end
$var wire 1 ," timer_inst|Equal0~8_combout $end
$var wire 1 -" timer_inst|count_reg[27]~85 $end
$var wire 1 ." timer_inst|count_reg[28]~86_combout $end
$var wire 1 /" timer_inst|count_reg[28]~87 $end
$var wire 1 0" timer_inst|count_reg[29]~88_combout $end
$var wire 1 1" timer_inst|count_reg[29]~89 $end
$var wire 1 2" timer_inst|count_reg[30]~90_combout $end
$var wire 1 3" timer_inst|count_reg[30]~91 $end
$var wire 1 4" timer_inst|count_reg[31]~92_combout $end
$var wire 1 5" timer_inst|Equal0~9_combout $end
$var wire 1 6" timer_inst|Equal0~6_combout $end
$var wire 1 7" timer_inst|Equal0~5_combout $end
$var wire 1 8" timer_inst|Equal0~7_combout $end
$var wire 1 9" timer_inst|Equal0~0_combout $end
$var wire 1 :" timer_inst|Equal0~1_combout $end
$var wire 1 ;" timer_inst|Equal0~2_combout $end
$var wire 1 <" timer_inst|Equal0~3_combout $end
$var wire 1 =" timer_inst|Equal0~4_combout $end
$var wire 1 >" timer_inst|Equal0~10_combout $end
$var wire 1 ?" tag_read_raw[3]~input_o $end
$var wire 1 @" tag_read_raw[1]~input_o $end
$var wire 1 A" tag_read_raw[0]~input_o $end
$var wire 1 B" tag_read_raw[2]~input_o $end
$var wire 1 C" input_interface_inst|Equal0~0_combout $end
$var wire 1 D" tag_read_raw[4]~input_o $end
$var wire 1 E" input_interface_inst|max_attempts~0_combout $end
$var wire 1 F" input_interface_inst|attempt_count~1_combout $end
$var wire 1 G" input_interface_inst|attempt_count~0_combout $end
$var wire 1 H" input_interface_inst|max_attempts~1_combout $end
$var wire 1 I" input_interface_inst|max_attempts~q $end
$var wire 1 J" peaje_controller_inst|red_led~0_combout $end
$var wire 1 K" peaje_controller_inst|alarm~combout $end
$var wire 1 L" input_interface_inst|tag_read[1]~feeder_combout $end
$var wire 1 M" output_interface_inst|Mux0~0_combout $end
$var wire 1 N" output_interface_inst|Mux3~0_combout $end
$var wire 1 O" output_interface_inst|Mux2~0_combout $end
$var wire 1 P" peaje_controller_inst|cat_display~0_combout $end
$var wire 1 Q" vehicle_counter_inst|count_reg[0]~18_combout $end
$var wire 1 R" vehicle_counter_inst|count_reg[1]~6_combout $end
$var wire 1 S" vehicle_counter_inst|count_reg[1]~7 $end
$var wire 1 T" vehicle_counter_inst|count_reg[2]~8_combout $end
$var wire 1 U" vehicle_counter_inst|count_reg[2]~9 $end
$var wire 1 V" vehicle_counter_inst|count_reg[3]~10_combout $end
$var wire 1 W" output_interface_inst|Mux11~0_combout $end
$var wire 1 X" vehicle_counter_inst|count_reg[3]~11 $end
$var wire 1 Y" vehicle_counter_inst|count_reg[4]~12_combout $end
$var wire 1 Z" vehicle_counter_inst|count_reg[4]~13 $end
$var wire 1 [" vehicle_counter_inst|count_reg[5]~14_combout $end
$var wire 1 \" vehicle_counter_inst|count_reg[5]~15 $end
$var wire 1 ]" vehicle_counter_inst|count_reg[6]~16_combout $end
$var wire 1 ^" output_interface_inst|Mux11~1_combout $end
$var wire 1 _" output_interface_inst|Mux10~0_combout $end
$var wire 1 `" output_interface_inst|Mux10~1_combout $end
$var wire 1 a" output_interface_inst|Mux9~0_combout $end
$var wire 1 b" output_interface_inst|Mux9~1_combout $end
$var wire 1 c" output_interface_inst|Mux8~0_combout $end
$var wire 1 d" output_interface_inst|Mux8~1_combout $end
$var wire 1 e" output_interface_inst|Mux7~0_combout $end
$var wire 1 f" output_interface_inst|Mux7~1_combout $end
$var wire 1 g" output_interface_inst|Mux6~0_combout $end
$var wire 1 h" output_interface_inst|Mux6~1_combout $end
$var wire 1 i" output_interface_inst|Mux5~0_combout $end
$var wire 1 j" output_interface_inst|Mux5~1_combout $end
$var wire 1 k" timer_inst|count_reg [31] $end
$var wire 1 l" timer_inst|count_reg [30] $end
$var wire 1 m" timer_inst|count_reg [29] $end
$var wire 1 n" timer_inst|count_reg [28] $end
$var wire 1 o" timer_inst|count_reg [27] $end
$var wire 1 p" timer_inst|count_reg [26] $end
$var wire 1 q" timer_inst|count_reg [25] $end
$var wire 1 r" timer_inst|count_reg [24] $end
$var wire 1 s" timer_inst|count_reg [23] $end
$var wire 1 t" timer_inst|count_reg [22] $end
$var wire 1 u" timer_inst|count_reg [21] $end
$var wire 1 v" timer_inst|count_reg [20] $end
$var wire 1 w" timer_inst|count_reg [19] $end
$var wire 1 x" timer_inst|count_reg [18] $end
$var wire 1 y" timer_inst|count_reg [17] $end
$var wire 1 z" timer_inst|count_reg [16] $end
$var wire 1 {" timer_inst|count_reg [15] $end
$var wire 1 |" timer_inst|count_reg [14] $end
$var wire 1 }" timer_inst|count_reg [13] $end
$var wire 1 ~" timer_inst|count_reg [12] $end
$var wire 1 !# timer_inst|count_reg [11] $end
$var wire 1 "# timer_inst|count_reg [10] $end
$var wire 1 ## timer_inst|count_reg [9] $end
$var wire 1 $# timer_inst|count_reg [8] $end
$var wire 1 %# timer_inst|count_reg [7] $end
$var wire 1 &# timer_inst|count_reg [6] $end
$var wire 1 '# timer_inst|count_reg [5] $end
$var wire 1 (# timer_inst|count_reg [4] $end
$var wire 1 )# timer_inst|count_reg [3] $end
$var wire 1 *# timer_inst|count_reg [2] $end
$var wire 1 +# timer_inst|count_reg [1] $end
$var wire 1 ,# timer_inst|count_reg [0] $end
$var wire 1 -# input_interface_inst|tag_read [4] $end
$var wire 1 .# input_interface_inst|tag_read [3] $end
$var wire 1 /# input_interface_inst|tag_read [2] $end
$var wire 1 0# input_interface_inst|tag_read [1] $end
$var wire 1 1# input_interface_inst|tag_read [0] $end
$var wire 1 2# vehicle_counter_inst|count_reg [6] $end
$var wire 1 3# vehicle_counter_inst|count_reg [5] $end
$var wire 1 4# vehicle_counter_inst|count_reg [4] $end
$var wire 1 5# vehicle_counter_inst|count_reg [3] $end
$var wire 1 6# vehicle_counter_inst|count_reg [2] $end
$var wire 1 7# vehicle_counter_inst|count_reg [1] $end
$var wire 1 8# vehicle_counter_inst|count_reg [0] $end
$var wire 1 9# input_interface_inst|attempt_count [1] $end
$var wire 1 :# input_interface_inst|attempt_count [0] $end
$var wire 1 ;# timer_inst|led_count_reg [25] $end
$var wire 1 <# timer_inst|led_count_reg [24] $end
$var wire 1 =# timer_inst|led_count_reg [23] $end
$var wire 1 ># timer_inst|led_count_reg [22] $end
$var wire 1 ?# timer_inst|led_count_reg [21] $end
$var wire 1 @# timer_inst|led_count_reg [20] $end
$var wire 1 A# timer_inst|led_count_reg [19] $end
$var wire 1 B# timer_inst|led_count_reg [18] $end
$var wire 1 C# timer_inst|led_count_reg [17] $end
$var wire 1 D# timer_inst|led_count_reg [16] $end
$var wire 1 E# timer_inst|led_count_reg [15] $end
$var wire 1 F# timer_inst|led_count_reg [14] $end
$var wire 1 G# timer_inst|led_count_reg [13] $end
$var wire 1 H# timer_inst|led_count_reg [12] $end
$var wire 1 I# timer_inst|led_count_reg [11] $end
$var wire 1 J# timer_inst|led_count_reg [10] $end
$var wire 1 K# timer_inst|led_count_reg [9] $end
$var wire 1 L# timer_inst|led_count_reg [8] $end
$var wire 1 M# timer_inst|led_count_reg [7] $end
$var wire 1 N# timer_inst|led_count_reg [6] $end
$var wire 1 O# timer_inst|led_count_reg [5] $end
$var wire 1 P# timer_inst|led_count_reg [4] $end
$var wire 1 Q# timer_inst|led_count_reg [3] $end
$var wire 1 R# timer_inst|led_count_reg [2] $end
$var wire 1 S# timer_inst|led_count_reg [1] $end
$var wire 1 T# timer_inst|led_count_reg [0] $end
$upscope $end
$upscope $end
$enddefinitions $end
#0
$dumpvars
0!
0"
0#
0$
b0 %
0&
1-
1,
1+
1*
0)
0(
1'
1.
0/
10
11
02
13
04
05
0<
0;
0:
09
08
07
16
x=
0>
1?
x@
1A
1B
1C
0D
1E
0F
1G
1H
1I
0J
0K
0L
1M
1N
1O
1P
0Q
0R
1S
0T
0U
0V
0W
0X
0Y
1Z
0[
0\
0]
0^
0_
0`
0a
0b
0c
0d
0e
0f
0g
1h
1i
0j
0k
1l
0m
0n
0o
1p
0q
0r
0s
1t
0u
0v
0w
0x
1y
0z
0{
0|
0}
1~
1!!
1"!
0#!
0$!
0%!
1&!
0'!
0(!
0)!
0*!
0+!
1,!
0-!
0.!
0/!
00!
01!
12!
03!
04!
05!
06!
17!
08!
09!
0:!
0;!
1<!
0=!
0>!
0?!
0@!
0A!
0B!
0C!
1D!
0E!
0F!
0G!
0H!
0I!
1J!
0K!
0L!
0M!
0N!
0O!
0P!
0Q!
0R!
0S!
1T!
0U!
0V!
0W!
1X!
0Y!
0Z!
0[!
1\!
0]!
0^!
0_!
1`!
0a!
0b!
0c!
1d!
0e!
0f!
0g!
1h!
0i!
0j!
0k!
1l!
0m!
0n!
0o!
1p!
0q!
0r!
0s!
1t!
0u!
0v!
0w!
1x!
0y!
0z!
0{!
1|!
0}!
0~!
0!"
1""
0#"
0$"
0%"
1&"
0'"
0("
0)"
1*"
0+"
0,"
0-"
0."
1/"
00"
01"
02"
13"
04"
05"
06"
07"
08"
19"
1:"
0;"
0<"
0="
0>"
0?"
0@"
0A"
0B"
1C"
0D"
1E"
1F"
0G"
0H"
0I"
0J"
0K"
0L"
0M"
1N"
1O"
0P"
1Q"
0R"
0S"
0T"
1U"
0V"
0W"
0X"
0Y"
1Z"
0["
0\"
0]"
0^"
0_"
0`"
0a"
0b"
0c"
0d"
0e"
0f"
0g"
0h"
0i"
1j"
0,#
0+#
0*#
0)#
0(#
0'#
0&#
0%#
0$#
0##
0"#
0!#
0~"
0}"
0|"
0{"
0z"
0y"
0x"
0w"
0v"
0u"
0t"
0s"
0r"
0q"
0p"
0o"
0n"
0m"
0l"
0k"
01#
00#
z/#
z.#
z-#
08#
07#
06#
05#
04#
03#
02#
0:#
09#
0T#
0S#
0R#
0Q#
0P#
0O#
0N#
0M#
0L#
0K#
0J#
0I#
0H#
0G#
0F#
0E#
0D#
0C#
0B#
0A#
0@#
0?#
0>#
0=#
0<#
0;#
$end
#15000
1"
1[
1\
0=
18#
1:#
1,#
1T#
1g"
1e"
1c"
1W"
1R"
0Q"
1G"
0F"
09"
1U!
0T!
0!!
1j
0h
1k
0i
1h"
1f"
1d"
1^"
1Y
1X
1W
1T
17
18
19
1<
#30000
0"
0[
0\
1=
#45000
1"
1[
1\
0=
17#
08#
19#
0:#
1+#
0,#
1S#
0T#
1i"
0e"
0c"
1a"
0W"
1Q"
1F"
1T!
0l
0k
0j
1h
1m
1l
1k
1i
0j"
0f"
0d"
1b"
0^"
0m
0Z
0X
0W
1V
0T
06
08
09
1:
0<
#60000
0"
0[
0\
1=
#75000
1"
1[
1\
0=
18#
1:#
1,#
1T#
1e"
0a"
1S"
0R"
0Q"
1H"
1V!
0U!
0T!
1j
0h
1T"
1W!
0l
0k
0i
1f"
0b"
1m
1X
0V
18
0:
#90000
0"
0[
0\
1=
#105000
1"
1[
1\
0=
16#
07#
08#
1I"
1*#
0+#
0,#
1R#
0S#
0T#
0g"
1c"
1W"
0U"
0T"
0S"
1Q"
0X!
0W!
0V!
1T!
0~
1n
0m
1!!
1l
1k
0j
1h
1V"
1U"
1T"
1Y!
1X!
1W!
1o
0n
1m
0k
1i
0h"
1d"
1^"
0V"
0Y!
0o
0Y
1W
1T
07
19
1<
#120000
0"
0[
0\
1=
#135000
1"
1[
1\
0=
18#
1,#
1T#
0c"
1_"
0W"
1R"
0Q"
1U!
0T!
0!!
1j
0h
1k
0i
0d"
1`"
0^"
0W
1U
0T
09
1;
0<
#150000
0"
0[
0\
1=
#165000
1"
1[
1\
0=
17#
08#
1+#
0,#
1S#
0T#
0e"
1Q"
1T!
0l
0k
0j
1h
1n
0m
1l
1k
1i
0f"
1o
0n
1m
0X
08
0o
#180000
0"
0[
0\
1=
#195000
1"
1[
1\
0=
18#
1,#
1T#
0i"
1g"
1e"
1c"
0_"
1S"
0R"
0Q"
1V!
0U!
0T!
1j
0h
0U"
0T"
0X!
0W!
0l
0k
0i
1j"
1h"
1f"
1d"
0`"
1V"
1Y!
1n
0m
1Z
1Y
1X
1W
0U
16
17
18
19
0;
1o
#210000
0"
0[
0\
1=
#225000
1"
1[
1\
0=
15#
06#
07#
08#
1)#
0*#
0+#
0,#
1Q#
0R#
0S#
0T#
1i"
0g"
0e"
0c"
1X"
0V"
1U"
1T"
0S"
1Q"
1Z!
0Y!
1X!
1W!
0V!
1T!
0p
0o
0n
1m
1!!
1l
1k
0j
1h
1Y"
0X"
1V"
0T"
1[!
0Z!
1Y!
0W!
1q
1p
1o
0m
0k
1i
0j"
0h"
0f"
0d"
0Y"
0[!
0q
0Z
0Y
0X
0W
06
07
08
09
#240000
0"
0[
0\
1=
#255000
1"
1[
1\
0=
18#
1,#
1T#
1e"
1R"
0Q"
1U!
0T!
0!!
1j
0h
1k
0i
1f"
1X
18
#270000
0"
0[
0\
1=
#285000
1"
1[
1\
0=
17#
08#
1+#
0,#
1S#
0T#
0i"
1g"
1c"
1a"
1_"
1W"
1Q"
1T!
0l
0k
0j
1h
1m
1l
1k
1i
1j"
1h"
1d"
1b"
1`"
1^"
0m
1Z
1Y
1W
1V
1U
1T
16
17
19
1:
1;
1<
#300000
0"
0[
0\
1=
#315000
1"
1[
1\
0=
18#
1,#
1T#
1S"
0R"
0Q"
1V!
0U!
0T!
1j
0h
1T"
1W!
0l
0k
0i
1m
#330000
0"
0[
0\
1=
#345000
1"
1[
1\
0=
16#
07#
08#
1*#
0+#
0,#
1R#
0S#
0T#
0U"
0T"
0S"
1Q"
0X!
0W!
0V!
1T!
1n
0m
1!!
1l
1k
0j
1h
1X"
0V"
1U"
1T"
1Z!
0Y!
1X!
1W!
0p
0o
0n
1m
0k
1i
1Y"
0X"
1V"
1[!
0Z!
1Y!
1q
1p
1o
0Y"
0[!
0q
#360000
0"
0[
0\
1=
#375000
1"
1[
1\
0=
18#
1,#
1T#
1R"
0Q"
1U!
0T!
0!!
1j
0h
1k
0i
#390000
0"
0[
0\
1=
#405000
1"
1[
1\
0=
17#
08#
1+#
0,#
1S#
0T#
1Q"
1T!
0l
0k
0j
1h
1n
0m
1l
1k
1i
0p
0o
0n
1m
1q
1p
1o
0q
#420000
0"
0[
0\
1=
#435000
1"
1[
1\
0=
18#
1,#
1T#
1S"
0R"
0Q"
1V!
0U!
0T!
1j
0h
0U"
0T"
0X!
0W!
0l
0k
0i
1X"
0V"
1Z!
0Y!
1n
0m
1Y"
1[!
0p
0o
1q
#450000
0"
0[
0\
1=
#465000
1"
1[
1\
0=
14#
05#
06#
07#
08#
1(#
0)#
0*#
0+#
0,#
1P#
0Q#
0R#
0S#
0T#
0Z"
0Y"
0g"
0e"
0c"
0a"
0_"
0W"
0X"
1V"
1U"
1T"
0S"
1Q"
0:"
0\!
0[!
19"
0Z!
1Y!
1X!
1W!
0V!
1T!
1r
0q
1p
1o
0n
1m
1!!
1l
1k
0j
1h
1["
1Z"
1Y"
0V"
0T"
1]!
1\!
1[!
0Y!
0W!
1s
0r
1q
0o
0m
0k
1i
0["
0]!
0s
#480000
0"
0[
0\
1=
#495000
1"
1[
1\
0=
18#
1,#
1T#
1g"
1e"
1c"
1W"
1R"
0Q"
09"
1U!
0T!
0!!
1j
0h
1k
0i
#510000
0"
0[
0\
1=
#525000
1"
1[
1\
0=
17#
08#
1+#
0,#
1S#
0T#
1i"
0e"
0c"
1a"
0W"
1Q"
1T!
0l
0k
0j
1h
1m
1l
1k
1i
0m
#540000
0"
0[
0\
1=
#555000
1"
1[
1\
0=
18#
1,#
1T#
1e"
0a"
1S"
0R"
0Q"
1V!
0U!
0T!
1j
0h
1T"
1W!
0l
0k
0i
1m
#570000
0"
0[
0\
1=
#585000
1"
1[
1\
0=
16#
07#
08#
1*#
0+#
0,#
1R#
0S#
0T#
0g"
1c"
1W"
0U"
0T"
0S"
1Q"
0X!
0W!
0V!
1T!
1n
0m
1!!
1l
1k
0j
1h
1V"
1U"
1T"
1Y!
1X!
1W!
1o
0n
1m
0k
1i
0V"
0Y!
0o
#600000
0"
0[
0\
1=
#615000
1"
1[
1\
0=
18#
1,#
1T#
0c"
1_"
0W"
1R"
0Q"
1U!
0T!
0!!
1j
0h
1k
0i
#630000
0"
0[
0\
1=
#645000
1"
1[
1\
0=
17#
08#
1+#
0,#
1S#
0T#
0e"
1Q"
1T!
0l
0k
0j
1h
1n
0m
1l
1k
1i
1o
0n
1m
0o
#660000
0"
0[
0\
1=
#675000
1"
1[
1\
0=
18#
1,#
1T#
0i"
1g"
1e"
1c"
0_"
1S"
0R"
0Q"
1V!
0U!
0T!
1j
0h
0U"
0T"
0X!
0W!
0l
0k
0i
1V"
1Y!
1n
0m
1o
#690000
0"
0[
0\
1=
#705000
1"
1[
1\
0=
15#
06#
07#
08#
1)#
0*#
0+#
0,#
1Q#
0R#
0S#
0T#
1i"
0g"
0e"
0c"
1X"
0V"
1U"
1T"
0S"
1Q"
1Z!
0Y!
1X!
1W!
0V!
1T!
0p
0o
0n
1m
1!!
1l
1k
0j
1h
0Z"
0Y"
0X"
1V"
0T"
0\!
0[!
0Z!
1Y!
0W!
1r
0q
1p
1o
0m
0k
1i
1["
1Z"
1Y"
1]!
1\!
1[!
1s
0r
1q
0["
0]!
0s
#720000
0"
0[
0\
1=
#735000
1"
1[
1\
0=
18#
1,#
1T#
1e"
1R"
0Q"
1U!
0T!
0!!
1j
0h
1k
0i
#750000
0"
0[
0\
1=
#765000
1"
1[
1\
0=
17#
08#
1+#
0,#
1S#
0T#
0i"
1g"
1c"
1a"
1_"
1W"
1Q"
1T!
0l
0k
0j
1h
1m
1l
1k
1i
0m
#780000
0"
0[
0\
1=
#795000
1"
1[
1\
0=
18#
1,#
1T#
1S"
0R"
0Q"
1V!
0U!
0T!
1j
0h
1T"
1W!
0l
0k
0i
1m
#810000
0"
0[
0\
1=
#825000
1"
1[
1\
0=
16#
07#
08#
1*#
0+#
0,#
1R#
0S#
0T#
0U"
0T"
0S"
1Q"
0X!
0W!
0V!
1T!
1n
0m
1!!
1l
1k
0j
1h
1X"
0V"
1U"
1T"
1Z!
0Y!
1X!
1W!
0p
0o
0n
1m
0k
1i
0Z"
0Y"
0X"
1V"
0\!
0[!
0Z!
1Y!
1r
0q
1p
1o
1["
1Z"
1Y"
1]!
1\!
1[!
1s
0r
1q
0["
0]!
0s
#840000
0"
0[
0\
1=
#855000
1"
1[
1\
0=
18#
1,#
1T#
1R"
0Q"
1U!
0T!
0!!
1j
0h
1k
0i
#870000
0"
0[
0\
1=
#885000
1"
1[
1\
0=
17#
08#
1+#
0,#
1S#
0T#
1Q"
1T!
0l
0k
0j
1h
1n
0m
1l
1k
1i
0p
0o
0n
1m
1r
0q
1p
1o
1s
0r
1q
0s
#900000
0"
0[
0\
1=
#915000
1"
1[
1\
0=
18#
1,#
1T#
1S"
0R"
0Q"
1V!
0U!
0T!
1j
0h
0U"
0T"
0X!
0W!
0l
0k
0i
1X"
0V"
1Z!
0Y!
1n
0m
0Z"
0Y"
0\!
0[!
0p
0o
1["
1]!
1r
0q
1s
#930000
0"
0[
0\
1=
